<?xml version="1.0" encoding="UTF-8" standalone="no"?>
<!-- Created with Inkscape (http://www.inkscape.org/) -->

<svg
   xmlns:dc="http://purl.org/dc/elements/1.1/"
   xmlns:cc="http://creativecommons.org/ns#"
   xmlns:rdf="http://www.w3.org/1999/02/22-rdf-syntax-ns#"
   xmlns:svg="http://www.w3.org/2000/svg"
   xmlns="http://www.w3.org/2000/svg"
   xmlns:xlink="http://www.w3.org/1999/xlink"
   xmlns:sodipodi="http://sodipodi.sourceforge.net/DTD/sodipodi-0.dtd"
   xmlns:inkscape="http://www.inkscape.org/namespaces/inkscape"
   version="1.1"
   id="svg4496"
   width="1350.3297"
   height="1080.2637"
   viewBox="0 0 1350.3297 1080.2637"
   sodipodi:docname="microscope_simplified.svg"
   inkscape:version="0.92.1 r15371">
  <metadata
     id="metadata4502">
    <rdf:RDF>
      <cc:Work
         rdf:about="">
        <dc:format>image/svg+xml</dc:format>
        <dc:type
           rdf:resource="http://purl.org/dc/dcmitype/StillImage" />
        <dc:title></dc:title>
      </cc:Work>
    </rdf:RDF>
  </metadata>
  <defs
     id="defs4500" />
  <sodipodi:namedview
     pagecolor="#ffffff"
     bordercolor="#666666"
     borderopacity="1"
     objecttolerance="10"
     gridtolerance="10"
     guidetolerance="10"
     inkscape:pageopacity="0"
     inkscape:pageshadow="2"
     inkscape:window-width="1920"
     inkscape:window-height="1017"
     id="namedview4498"
     showgrid="false"
     inkscape:zoom="0.29743599"
     inkscape:cx="1764.5109"
     inkscape:cy="1270.8018"
     inkscape:window-x="-8"
     inkscape:window-y="-8"
     inkscape:window-maximized="1"
     inkscape:current-layer="layer1" />
  <g
     inkscape:groupmode="layer"
     id="layer3"
     inkscape:label="imported image"
     style="display:inline">
    <image
       width="1350.3297"
       height="1080.2637"
       preserveAspectRatio="none"
       xlink:href="file:///C:/Users/rwb34/Downloads/main_body_LS65-M.png"
       id="image4504"
       x="-1390.7445"
       y="-1092.1504"
       transform="scale(-1)" />
  </g>
  <g
     inkscape:groupmode="layer"
     id="layer4"
     inkscape:label="construction lines"
     style="display:none">
    <circle
       style="opacity:1;fill:none;fill-opacity:1;stroke:#000000;stroke-width:3.77952766;stroke-miterlimit:4;stroke-dasharray:none;stroke-dashoffset:0;stroke-opacity:1;paint-order:normal"
       id="path5051"
       cx="714.98523"
       cy="387.2688"
       r="155.12151"
       inkscape:export-filename="C:\Users\rwb34\Downloads\ofm_icon.png"
       inkscape:export-xdpi="13.63"
       inkscape:export-ydpi="13.63" />
    <rect
       style="opacity:1;fill:none;fill-opacity:1;stroke:#000000;stroke-width:3.77952766;stroke-miterlimit:4;stroke-dasharray:none;stroke-dashoffset:0;stroke-opacity:1;paint-order:normal"
       id="rect5055"
       width="398.20462"
       height="398.20462"
       x="514.09991"
       y="189.94946" />
    <path
       style="opacity:1;fill:#d45500;fill-opacity:1;stroke:#000000;stroke-width:3.77952766;stroke-miterlimit:4;stroke-dasharray:none;stroke-dashoffset:0;stroke-opacity:1;paint-order:normal"
       d="m 597.11131,189.94925 -83.01144,83.01003 v 232.1836 l 83.01172,83.01172 h 232.18359 l 83.01003,-83.01145 2e-5,-232.18361 -83.00976,-83.00977 z m 117.87305,42.19726 A 155.12151,155.12151 0 0 1 870.10741,387.26956 155.12151,155.12151 0 0 1 714.98463,542.39092 155.12151,155.12151 0 0 1 559.86353,387.26983 155.12151,155.12151 0 0 1 714.98489,232.14705 Z"
       id="rect5061"
       inkscape:connector-curvature="0"
       inkscape:export-filename="C:\Users\rwb34\Downloads\ofm_icon.png"
       inkscape:export-xdpi="13.63"
       inkscape:export-ydpi="13.63" />
    <rect
       y="556.53558"
       x="6.3332877"
       height="445.75143"
       width="445.75143"
       id="rect5057"
       style="opacity:1;fill:none;fill-opacity:1;stroke:#000000;stroke-width:3.77952766;stroke-miterlimit:4;stroke-dasharray:none;stroke-dashoffset:0;stroke-opacity:1;paint-order:normal"
       transform="rotate(-45)" />
    <circle
       r="155.12151"
       cy="387.2688"
       cx="714.98523"
       id="circle5059"
       style="opacity:1;fill:none;fill-opacity:1;stroke:#000000;stroke-width:3.77952766;stroke-miterlimit:4;stroke-dasharray:none;stroke-dashoffset:0;stroke-opacity:1;paint-order:normal"
       inkscape:export-filename="C:\Users\rwb34\Downloads\ofm_icon.png"
       inkscape:export-xdpi="13.63"
       inkscape:export-ydpi="13.63" />
  </g>
  <g
     inkscape:groupmode="layer"
     id="layer2"
     inkscape:label="shaded background"
     style="display:inline">
    <rect
       style="opacity:1;fill:#ff6600;fill-opacity:1;stroke:#000000;stroke-width:3.77952766;stroke-miterlimit:4;stroke-dasharray:none;stroke-dashoffset:0;stroke-opacity:1;paint-order:normal"
       id="rect5310"
       width="1098.3315"
       height="1098.3315"
       x="-484.74573"
       y="379.58371"
       ry="168.79121"
       rx="168.79121"
       transform="rotate(-45)" />
    <path
       style="opacity:1;fill:#ff7f2a;fill-opacity:1;stroke:#000000;stroke-width:3.77952766;stroke-miterlimit:4;stroke-dasharray:none;stroke-dashoffset:0;stroke-opacity:1;paint-order:normal"
       d="m 625.6875,161.37305 -70.08203,70.08203 -39.40039,39.40039 -19.69922,19.69922 -213.88281,376.10351 94.71484,54.77735 56.67578,99.94726 L 605.0332,928.05664 710.82617,885.09375 821.37109,928.05664 992.39062,821.38281 1041.9355,723.8125 1143.7812,666.6582 929.89844,290.55469 910.19922,270.85547 870.79883,231.45508 800.7168,161.37305 Z m 89.29688,70.77343 A 155.12151,155.12151 0 0 1 870.10742,387.26953 155.12151,155.12151 0 0 1 714.98438,542.39062 155.12151,155.12151 0 0 1 559.86328,387.26953 155.12151,155.12151 0 0 1 714.98438,232.14648 Z"
       id="rect5259"
       inkscape:connector-curvature="0"
       inkscape:export-filename="C:\Users\rwb34\Downloads\ofm_icon.png"
       inkscape:export-xdpi="13.63"
       inkscape:export-ydpi="13.63" />
    <rect
       rx="168.79121"
       ry="168.79121"
       y="14.882564"
       x="1600.4904"
       height="1098.3315"
       width="1098.3315"
       id="rect5382"
       style="opacity:1;fill:#ff6600;fill-opacity:1;stroke:none;stroke-width:3.77952766;stroke-miterlimit:4;stroke-dasharray:none;stroke-dashoffset:0;stroke-opacity:1;paint-order:normal"
       inkscape:export-filename="C:\Users\rwb34\Downloads\microscope_icon_2.png"
       inkscape:export-xdpi="11.187879"
       inkscape:export-ydpi="11.187879" />
    <rect
       style="opacity:1;fill:#ff6600;fill-opacity:1;stroke:none;stroke-width:3.77952766;stroke-miterlimit:4;stroke-dasharray:none;stroke-dashoffset:0;stroke-opacity:1;paint-order:normal"
       id="rect5446"
       width="1098.3315"
       height="1098.3315"
       x="1600.4904"
       y="14.882564"
       ry="168.79121"
       rx="168.79121"
       inkscape:export-filename="C:\Users\rwb34\Downloads\microscope_icon_2.png"
       inkscape:export-xdpi="11.187879"
       inkscape:export-ydpi="11.187879" />
    <rect
       rx="168.79121"
       ry="168.79121"
       y="-1297.5272"
       x="1649.0096"
       height="1098.3315"
       width="1098.3315"
       id="rect5448"
       style="opacity:1;fill:#ff6600;fill-opacity:1;stroke:none;stroke-width:3.77952766;stroke-miterlimit:4;stroke-dasharray:none;stroke-dashoffset:0;stroke-opacity:1;paint-order:normal"
       inkscape:export-filename="C:\Users\rwb34\Downloads\ofm_icon.png"
       inkscape:export-xdpi="43.702644"
       inkscape:export-ydpi="43.702644" />
  </g>
  <g
     inkscape:groupmode="layer"
     id="layer1"
     inkscape:label="key parts"
     style="display:inline">
    <path
       id="rect5080"
       style="opacity:1;fill:#d45500;fill-opacity:1;stroke:#000000;stroke-width:3.77952766;stroke-miterlimit:4;stroke-dasharray:none;stroke-dashoffset:0;stroke-opacity:1;paint-order:normal"
       d="m 469.63034,699.43122 89.93531,-89.9353 8.82542,8.82543 -89.9353,89.9353 z m -75.63255,-75.63254 89.93531,-89.93531 8.82543,8.82543 -89.93531,89.93531 z M 479.30327,751.97052 612.94547,618.32833 483.92611,489.30897 350.28392,622.95117 Z"
       inkscape:connector-curvature="0"
       inkscape:export-filename="C:\Users\rwb34\Downloads\ofm_icon.png"
       inkscape:export-xdpi="13.63"
       inkscape:export-ydpi="13.63" />
    <path
       style="opacity:1;fill:#d45500;fill-opacity:1;stroke:#000000;stroke-width:3.77952766;stroke-miterlimit:4;stroke-dasharray:none;stroke-dashoffset:0;stroke-opacity:1;paint-order:normal"
       d="m 282.62273,666.65728 c -24.33003,24.33002 -24.3314,63.50452 -10e-4,87.83454 l 65.14082,65.14083 c 24.33003,24.33002 63.50451,24.32864 87.83454,-10e-4 24.33003,-24.33003 24.33003,-63.50314 0,-87.83317 l -65.14119,-65.1412 c -24.33003,-24.33003 -63.50314,-24.33003 -87.83317,0 z m 66.82159,66.82159 a 13.669711,13.669711 0 0 1 19.33081,10e-4 13.669711,13.669711 0 0 1 0.001,19.33081 13.669711,13.669711 0 0 1 -19.33218,0 13.669711,13.669711 0 0 1 -10e-6,-19.33219 z"
       id="rect5103"
       inkscape:connector-curvature="0"
       inkscape:export-filename="C:\Users\rwb34\Downloads\ofm_icon.png"
       inkscape:export-xdpi="13.63"
       inkscape:export-ydpi="13.63" />
    <rect
       style="opacity:1;fill:#d45500;fill-opacity:1;stroke:#000000;stroke-width:3.77952766;stroke-miterlimit:4;stroke-dasharray:none;stroke-dashoffset:0;stroke-opacity:1;paint-order:normal"
       id="rect5105"
       width="180.67792"
       height="62.999538"
       x="138.87064"
       y="480.17368"
       ry="0"
       rx="0"
       transform="rotate(-45)"
       inkscape:export-filename="C:\Users\rwb34\Downloads\ofm_icon.png"
       inkscape:export-xdpi="13.63"
       inkscape:export-ydpi="13.63" />
    <path
       d="m 1023.5826,632.62414 -89.93529,-89.9353 8.82543,-8.82543 89.93526,89.93531 z m -75.63253,75.63255 -89.93531,-89.93531 8.82543,-8.82543 89.93531,89.93531 z M 1076.1219,622.95123 942.47971,489.30902 813.46036,618.32837 947.10257,751.97057 Z"
       style="opacity:1;fill:#d45500;fill-opacity:1;stroke:#000000;stroke-width:3.77952766;stroke-miterlimit:4;stroke-dasharray:none;stroke-dashoffset:0;stroke-opacity:1;paint-order:normal"
       id="path5117"
       inkscape:connector-curvature="0"
       inkscape:export-filename="C:\Users\rwb34\Downloads\ofm_icon.png"
       inkscape:export-xdpi="13.63"
       inkscape:export-ydpi="13.63" />
    <path
       id="path5119"
       d="m 990.80889,819.63154 c 24.33001,24.33002 63.50451,24.33138 87.83451,10e-4 l 65.1408,-65.14083 c 24.3301,-24.33002 24.3287,-63.5045 0,-87.83452 -24.3301,-24.33003 -63.5032,-24.33003 -87.8332,-10e-6 l -65.14081,65.14083 c -24.33003,24.33002 -24.33004,63.50313 0,87.83317 z m 66.82161,-66.8216 a 13.669711,13.669711 0 0 1 0,-19.33081 13.669711,13.669711 0 0 1 19.3308,-0.001 13.669711,13.669711 0 0 1 0,19.33219 13.669711,13.669711 0 0 1 -19.3322,0 z"
       style="opacity:1;fill:#d45500;fill-opacity:1;stroke:#000000;stroke-width:3.77952766;stroke-miterlimit:4;stroke-dasharray:none;stroke-dashoffset:0;stroke-opacity:1;paint-order:normal"
       inkscape:connector-curvature="0"
       inkscape:export-filename="C:\Users\rwb34\Downloads\ofm_icon.png"
       inkscape:export-xdpi="13.63"
       inkscape:export-ydpi="13.63" />
    <rect
       rx="0"
       ry="0"
       y="-528.44818"
       x="689.07263"
       height="62.999538"
       width="180.67792"
       id="rect5139"
       style="opacity:1;fill:#d45500;fill-opacity:1;stroke:#000000;stroke-width:3.77952766;stroke-miterlimit:4;stroke-dasharray:none;stroke-dashoffset:0;stroke-opacity:1;paint-order:normal"
       transform="rotate(45)"
       inkscape:export-filename="C:\Users\rwb34\Downloads\ofm_icon.png"
       inkscape:export-xdpi="13.63"
       inkscape:export-ydpi="13.63" />
    <path
       inkscape:connector-curvature="0"
       style="opacity:1;fill:#d45500;fill-opacity:1;stroke:#000000;stroke-width:3.77952766;stroke-miterlimit:4;stroke-dasharray:none;stroke-dashoffset:0;stroke-opacity:1;paint-order:normal"
       d="m 605.03303,928.05756 c -1e-5,34.40784 27.69958,62.10935 62.10764,62.10908 l 92.1231,-2e-5 c 34.4079,6e-5 62.1074,-27.70147 62.1083,-62.10838 0,-34.40791 -27.6996,-62.10748 -62.1074,-62.10746 l -92.123,10e-6 c -34.40789,0 -62.10747,27.69956 -62.10747,62.10743 z m 94.50004,1e-5 a 13.669711,13.669711 0 0 1 13.6689,-13.66895 13.669711,13.669711 0 0 1 13.6697,13.66823 13.669711,13.669711 0 0 1 -13.67,13.66992 13.669711,13.669711 0 0 1 -13.6699,-13.66993 z"
       id="path5147"
       inkscape:export-filename="C:\Users\rwb34\Downloads\ofm_icon.png"
       inkscape:export-xdpi="13.63"
       inkscape:export-ydpi="13.63" />
    <path
       inkscape:connector-curvature="0"
       id="path5153"
       d="m 597.11131,189.94925 -83.01144,83.01003 v 232.1836 l 83.01172,83.01172 h 232.18359 l 83.01003,-83.01145 2e-5,-232.18361 -83.00976,-83.00977 z m 117.87305,42.19726 A 155.12151,155.12151 0 0 1 870.10741,387.26956 155.12151,155.12151 0 0 1 714.98463,542.39092 155.12151,155.12151 0 0 1 559.86353,387.26983 155.12151,155.12151 0 0 1 714.98489,232.14705 Z"
       style="opacity:1;fill:#d45500;fill-opacity:1;stroke:#000000;stroke-width:3.77952766;stroke-miterlimit:4;stroke-dasharray:none;stroke-dashoffset:0;stroke-opacity:1;paint-order:normal"
       inkscape:export-filename="C:\Users\rwb34\Downloads\ofm_icon.png"
       inkscape:export-xdpi="13.63"
       inkscape:export-ydpi="13.63" />
    <path
       id="path5326"
       d="m 707.21903,1063.1658 -2.1386,-3.8368 -1.6997,-3.5589 -1.3049,-3.2428 -0.9573,-2.891 -0.6602,-2.5123 -0.4143,-2.1077 -0.2229,-1.6848 0.019,-0.2095 -5.7894,-0.7622 -0.029,0.2076 -0.6507,1.5705 -0.9457,1.9279 -1.2876,2.2557 -1.6735,2.546 -2.0996,2.7939 -2.5629,2.9977 -3.0588,3.1524 -3.5834,3.2553 -4.1737,-1.1178 -1.4755,-4.6114 -1.0726,-4.2596 -0.7208,-3.878 -0.421,-3.4686 -0.1768,-3.0419 0.01,-2.5969 0.1451,-2.1433 0.2211,-1.6848 0.077,-0.1961 -5.3948,-2.2355 -0.087,0.1922 -1.0352,1.3484 -1.4128,1.6185 -1.8277,1.8453 -2.2751,2.0251 -2.7513,2.1557 -3.2513,2.2317 -3.7705,2.2538 -4.30397,2.2172 -3.74214,-2.1605 -0.23163,-4.8353 0.0673,-4.3923 0.30755,-3.9318 0.49111,-3.461 0.61608,-2.9823 0.68429,-2.5056 0.69488,-2.033 0.64971,-1.5705 0.12402,-0.1701 -4.6325,-3.5548 -0.1326,0.1635 -1.34891,1.0339 -1.78362,1.1975 -2.24283,1.3096 -2.72193,1.3676 -3.21537,1.3699 -3.71821,1.3148 -4.22529,1.2005 -4.73162,1.0283 -3.05534,-3.0553 1.0284,-4.7316 1.2004,-4.2253 1.3148,-3.7182 1.36996,-3.2154 1.36753,-2.7219 1.30961,-2.2429 1.19754,-1.7836 1.03396,-1.3489 0.16334,-0.1326 -3.55473,-4.6325 -0.17012,0.124 -1.57053,0.6497 -2.03304,0.6949 -2.50559,0.6843 -2.9823,0.616 -3.46093,0.4911 -3.93187,0.3076 -4.39222,0.067 -4.83531,-0.2316 -2.16056,-3.7422 2.21726,-4.30398 2.25378,-3.7704 2.23169,-3.25141 2.15574,-2.75127 2.02504,-2.27512 1.84531,-1.82763 1.6185,-1.41281 1.34843,-1.03521 0.19218,-0.0865 -2.23551,-5.39475 -0.1961,0.0769 -1.68481,0.22104 -2.14326,0.14512 -2.5969,0.01 -3.04189,-0.17685 -3.46862,-0.42095 -3.87805,-0.72083 -4.2596,-1.07258 -4.61136,-1.47549 -1.11776,-4.17379 3.25525,-3.58336 3.15242,-3.0588 2.99768,-2.56288 2.79392,-2.09962 2.54596,-1.67346 2.25572,-1.28759 1.92794,-0.94574 1.57047,-0.65066 0.20759,-0.0288 -0.76216,-5.78921 -0.20952,0.0192 -1.68481,-0.22298 -2.10771,-0.41423 -2.5123,-0.66028 -2.891,-0.95725 -3.24276,-1.3048 -3.55897,-1.69971 -3.8367,-2.13865 -4.07221,-2.61862 10e-6,-4.32102 4.0721,-2.61862 3.83672,-2.13864 3.55894,-1.6997 3.24278,-1.305 2.89099,-0.95725 2.51231,-0.66028 2.1077,-0.41423 1.68481,-0.22298 0.20953,0.0192 0.76214,-5.7894 -0.20758,-0.0288 -1.57044,-0.65067 -1.92797,-0.94572 -2.25571,-1.28759 -2.54596,-1.67347 -2.79393,-2.09962 -2.99767,-2.56288 -3.15243,-3.05881 -3.25525,-3.58338 1.11776,-4.17376 4.61137,-1.47549 4.25961,-1.07258 3.87803,-0.72084 3.46862,-0.42095 3.04189,-0.17685 2.5969,0.01 2.14326,0.14513 1.68481,0.22105 0.19609,0.0769 2.23553,-5.39475 -0.19226,-0.0865 -1.34842,-1.03519 -1.61851,-1.41283 -1.8453,-1.82762 -2.02505,-2.27512 -2.15575,-2.75126 -2.23168,-3.25141 -2.25379,-3.77039 -2.21726,-4.30402 2.16056,-3.74214 4.83531,-0.23163 4.39223,0.0673 3.93186,0.30755 3.46094,0.49112 2.98228,0.61607 2.50561,0.68431 2.03301,0.69487 1.57055,0.64971 0.17012,0.12402 3.55473,-4.63251 -0.16335,-0.13266 -1.03397,-1.34891 -1.19752,-1.78361 -1.30959,-2.24283 -1.36756,-2.72195 -1.36996,-3.21536 -1.31479,-3.7182 -1.2004,-4.2253 -1.0284,-4.73159 3.05536,-3.05536 4.73159,1.02839 4.22531,1.20041 3.7182,1.31478 3.21537,1.36997 2.72194,1.36755 2.24282,1.3096 1.78362,1.19752 1.34891,1.03396 0.13265,0.16335 4.63253,-3.55474 -0.12402,-0.17013 -0.64971,-1.57052 -0.69488,-2.03225 -0.68429,-2.5056 -0.61608,-2.9823 -0.49112,-3.46093 -0.30755,-3.93187 -0.0673,-4.39223 0.23165,-4.83531 3.74215,-2.16055 4.30405,2.21726 3.7704,2.25378 3.2514,2.23168 2.7512,2.15575 2.2751,2.02504 1.8277,1.84531 1.4128,1.61851 1.0352,1.34842 0.087,0.19225 5.3948,-2.23552 -0.077,-0.19609 -0.2211,-1.68481 -0.1451,-2.14326 -0.01,-2.59689 0.1768,-3.04189 0.421,-3.46863 0.7208,-3.87804 1.0726,-4.2596 1.4755,-4.61137 4.1738,-1.11777 3.5833,3.25526 3.0589,3.15243 2.5628,2.99767 2.0996,2.79392 1.6735,2.54596 1.2876,2.2557 0.9457,1.92796 0.6507,1.57045 0.029,0.2076 5.7892,-0.76215 -0.019,-0.20952 0.223,-1.68481 0.4142,-2.10771 0.6603,-2.51232 0.9572,-2.89098 1.3049,-3.24277 1.6998,-3.55896 2.1386,-3.83672 2.6186,-4.07218 h 4.3208 l 2.6187,4.07218 2.1386,3.83672 1.6997,3.55896 1.3049,3.24276 0.9573,2.89099 0.6602,2.51232 0.4143,2.10771 0.2229,1.6848 -0.019,0.20954 5.7894,0.76214 0.029,-0.2076 0.6507,-1.57045 0.9457,-1.92795 1.2876,-2.25571 1.6735,-2.54596 2.0996,-2.79393 2.5629,-2.99767 3.0588,-3.15242 3.5834,-3.25526 4.1737,1.11775 1.4755,4.61138 1.0726,4.25961 0.7208,3.87804 0.421,3.46862 0.1768,3.04189 -0.01,2.5969 -0.1451,2.14326 -0.221,1.6848 -0.077,0.19609 5.3941,2.23551 0.086,-0.1922 1.0352,-1.34842 1.4128,-1.61851 1.8277,-1.84531 2.2751,-2.02504 2.7513,-2.15575 3.2514,-2.23168 3.7704,-2.25378 4.304,-2.21725 3.7421,2.16055 0.2316,4.83531 -0.067,4.39223 -0.3075,3.93186 -0.4911,3.46093 -0.6161,2.98231 -0.6843,2.50559 -0.6949,2.03302 -0.6497,1.57054 -0.124,0.17012 4.6325,3.55474 0.1327,-0.16336 1.3489,-1.03396 1.7836,-1.19754 2.2428,-1.30958 2.7219,-1.36756 3.2154,-1.36995 3.7182,-1.3148 4.2253,-1.20041 4.7316,-1.02838 3.0554,3.05535 -1.0284,4.7316 -1.2004,4.2253 -1.3148,3.71821 -1.37,3.21535 -1.3675,2.72195 -1.3096,2.24283 -1.1976,1.78361 -1.0339,1.3489 -0.1634,0.13267 3.5548,4.63251 0.1701,-0.12403 1.5705,-0.6497 2.033,-0.69488 2.5056,-0.6843 2.9823,-0.61608 3.461,-0.49112 3.9318,-0.30755 4.3923,-0.0673 4.8353,0.23162 2.1605,3.74215 -2.2172,4.30403 -2.2538,3.7704 -2.2317,3.25141 -2.1557,2.75123 -2.0251,2.27513 -1.8453,1.82763 -1.6185,1.41282 -1.3484,1.03522 -0.1923,0.0865 2.2356,5.39478 0.1961,-0.0769 1.6848,-0.22105 2.1432,-0.14514 2.5969,-0.01 3.0419,0.17684 3.4686,0.42096 3.8781,0.72082 4.2596,1.0726 4.6114,1.47549 1.1177,4.17378 -3.2552,3.58337 -3.1525,3.0588 -2.9976,2.56288 -2.794,2.09962 -2.5459,1.67348 -2.2557,1.28758 -1.928,0.94572 -1.5704,0.65066 -0.2076,0.0288 0.7621,5.7892 0.2095,-0.0192 1.6848,0.22297 2.1077,0.41425 2.5124,0.66026 2.891,0.95727 3.2427,1.30488 3.559,1.69972 3.8367,2.13864 4.0722,2.61862 v 4.32082 l -4.0722,2.61862 -3.8367,2.13865 -3.559,1.69971 -3.2427,1.30489 -2.891,0.95725 -2.5124,0.66029 -2.1077,0.41423 -1.6848,0.22297 -0.2095,-0.0192 -0.7621,5.78938 0.2076,0.0289 1.5704,0.65066 1.928,0.94573 2.2557,1.2876 2.5459,1.67346 2.794,2.09962 2.9976,2.56287 3.1525,3.05881 3.2552,3.58336 -1.1177,4.17378 -4.6114,1.47549 -4.2596,1.07259 -3.8781,0.72082 -3.4686,0.42096 -3.0419,0.17685 -2.5969,-0.01 -2.1432,-0.14513 -1.6848,-0.22106 -0.1961,-0.0769 -2.2355,5.39476 0.1922,0.0865 1.3484,1.03521 1.6185,1.41283 1.8453,1.82764 2.0251,2.27512 2.1557,2.75123 2.2317,3.25141 2.2538,3.77042 2.2172,4.30399 -2.1605,3.7422 -4.8353,0.2316 -4.3922,-0.067 -3.9319,-0.3076 -3.4609,-0.4911 -2.9823,-0.6161 -2.5056,-0.6843 -2.033,-0.6948 -1.5706,-0.6497 -0.1701,-0.1241 -3.5548,4.6326 0.1635,0.1325 1.0339,1.349 1.1976,1.7836 1.3096,2.2428 1.3675,2.7219 1.37,3.2154 1.3148,3.7182 1.2004,4.2253 1.0283,4.7316 -3.0553,3.0554 -4.7316,-1.0284 -4.2253,-1.2004 -3.7182,-1.3148 -3.2154,-1.37 -2.7219,-1.3675 -2.2428,-1.3096 -1.7837,-1.1976 -1.3489,-1.0339 -0.1326,-0.1634 -4.6325,3.5548 0.124,0.1701 0.6497,1.5705 0.6949,2.0325 0.6843,2.5056 0.616,2.9823 0.4912,3.4609 0.3075,3.9319 0.067,4.3922 -0.2316,4.8353 -3.7422,2.1606 -4.304,-2.2173 -3.7704,-2.2538 -3.2514,-2.2317 -2.7512,-2.1557 -2.2751,-2.025 -1.8277,-1.8454 -1.4128,-1.6185 -1.0352,-1.3484 -0.086,-0.1922 -5.3948,2.2355 0.077,0.1961 0.2211,1.6849 0.1451,2.1432 0.01,2.5969 -0.1768,3.0419 -0.421,3.4686 -0.7208,3.8781 -1.0726,4.2595 -1.4755,4.6114 -4.1738,1.1178 -3.5833,-3.2553 -3.0588,-3.1524 -2.5629,-2.9977 -2.0996,-2.7939 -1.6735,-2.5459 -1.2876,-2.2557 -0.9457,-1.928 -0.6507,-1.5705 -0.029,-0.2076 -5.7892,0.7622 0.019,0.2095 -0.223,1.6848 -0.4142,2.1077 -0.6603,2.5123 -0.9572,2.891 -1.3049,3.2428 -1.6997,3.559 -2.1387,3.8367 -2.6186,4.0722 h -4.3208 z m 11.151,-119.35335 5.402,-3.6096 3.6096,-5.40189 1.2675,-6.37211 -1.2675,-6.372 -3.6096,-5.40197 -5.402,-3.60962 -6.372,-1.2675 -6.372,1.2675 -5.402,3.60962 -3.6096,5.40196 -1.2675,6.37201 1.2675,6.37211 3.6096,5.40188 5.402,3.60961 6.372,1.26749 z"
       inkscape:connector-curvature="0"
       style="display:inline;fill:#d45500;stroke:#000000;stroke-width:4" />
    <path
       style="display:inline;fill:#d45500;stroke:#000000;stroke-width:4"
       inkscape:connector-curvature="0"
       d="m 362.16222,877.54489 2.13863,-3.83672 1.69971,-3.55897 1.30489,-3.24274 0.95725,-2.891 0.66028,-2.51233 0.41423,-2.1077 0.22298,-1.6848 -0.0192,-0.20953 5.78938,-0.76216 0.0288,0.20761 0.65066,1.57044 0.94573,1.92797 1.2876,2.25572 1.67346,2.54595 2.09963,2.79392 2.56286,2.99767 3.05881,3.15242 3.58337,3.25525 4.17378,-1.11775 1.47548,-4.61136 1.07259,-4.25961 0.72083,-3.87806 0.42096,-3.4686 0.17685,-3.0419 -0.01,-2.5969 -0.14513,-2.14325 -0.22107,-1.68481 -0.0769,-0.19609 5.39477,-2.23553 0.0865,0.19218 1.0352,1.34843 1.41282,1.61849 1.82763,1.84531 2.27513,2.02505 2.75126,2.15575 3.25138,2.23168 3.77042,2.25379 4.30402,2.21726 3.74214,-2.16057 0.23163,-4.83531 -0.0673,-4.39222 -0.30755,-3.93187 -0.49111,-3.46094 -0.61608,-2.98229 -0.68429,-2.50559 -0.69488,-2.03302 -0.64971,-1.57053 -0.12402,-0.17013 4.6325,-3.55473 0.1326,0.16342 1.34891,1.03394 1.78362,1.19753 2.24283,1.30962 2.72193,1.36755 3.21537,1.36995 3.71821,1.31478 4.22529,1.20043 4.73162,1.02838 3.05534,-3.05534 -1.0284,-4.73161 -1.2004,-4.22528 -1.3148,-3.71823 -1.36996,-3.21537 -1.36753,-2.72193 -1.30961,-2.24284 -1.19754,-1.78361 -1.03396,-1.34891 -0.16334,-0.13266 3.55473,-4.6325 0.17012,0.12402 1.57053,0.64969 2.03304,0.69489 2.50559,0.68431 2.9823,0.61605 3.46093,0.49112 3.93187,0.30755 4.39222,0.0673 4.83531,-0.23162 2.16056,-3.74214 -2.21726,-4.30401 -2.25378,-3.7704 -2.23169,-3.25141 -2.15574,-2.75127 -2.02504,-2.27512 -1.84531,-1.82763 -1.6185,-1.41281 -1.34843,-1.03521 -0.19218,-0.0865 2.23551,-5.39475 0.1961,0.0769 1.68481,0.22104 2.14326,0.14512 2.5969,0.01 3.04189,-0.17685 3.46862,-0.42095 3.87805,-0.72083 4.2596,-1.07258 4.61136,-1.47549 1.11776,-4.17379 -3.25525,-3.58336 -3.15242,-3.0588 -2.99768,-2.56288 -2.79392,-2.09962 -2.54596,-1.67346 -2.25572,-1.28759 -1.92794,-0.94574 -1.57047,-0.65066 -0.20759,-0.0288 0.76216,-5.78921 0.20952,0.0192 1.68481,-0.22298 2.10771,-0.41423 2.5123,-0.66028 2.891,-0.95725 3.24276,-1.3048 3.55897,-1.69971 3.8367,-2.13865 4.07221,-2.61862 -10e-6,-4.32102 -4.0721,-2.61862 -3.83672,-2.13864 -3.55894,-1.6997 -3.24278,-1.305 -2.89099,-0.95725 -2.51231,-0.66028 -2.1077,-0.41423 -1.68481,-0.22298 -0.20953,0.0192 -0.76214,-5.7894 0.20758,-0.0288 1.57044,-0.65067 1.92797,-0.94572 2.25571,-1.28759 2.54596,-1.67347 2.79393,-2.09962 2.99767,-2.56288 3.15243,-3.05881 3.25525,-3.58338 -1.11776,-4.17376 -4.61137,-1.47549 -4.25961,-1.07258 -3.87803,-0.72084 -3.46862,-0.42095 -3.04189,-0.17685 -2.5969,0.01 -2.14326,0.14513 -1.68481,0.22105 -0.19609,0.0769 -2.23553,-5.39475 0.19226,-0.0865 1.34842,-1.03519 1.61851,-1.41283 1.8453,-1.82762 2.02505,-2.27512 2.15575,-2.75126 2.23168,-3.25141 2.25379,-3.77039 2.21726,-4.30402 -2.16056,-3.74214 -4.83531,-0.23163 -4.39223,0.0673 -3.93186,0.30755 -3.46094,0.49112 -2.98228,0.61607 -2.50561,0.68431 -2.03301,0.69487 -1.57055,0.64971 -0.17012,0.12402 -3.55473,-4.63251 0.16335,-0.13266 1.03397,-1.34891 1.19752,-1.78361 1.30959,-2.24283 1.36756,-2.72195 1.36996,-3.21536 1.31479,-3.7182 1.2004,-4.2253 1.0284,-4.73159 -3.05536,-3.05536 -4.73159,1.02839 -4.22531,1.20041 -3.7182,1.31478 -3.21537,1.36997 -2.72194,1.36755 -2.24282,1.3096 -1.78362,1.19752 -1.34891,1.03396 -0.13265,0.16335 -4.63253,-3.55474 0.12402,-0.17013 0.64971,-1.57052 0.69488,-2.03225 0.68429,-2.5056 0.61608,-2.9823 0.49112,-3.46093 0.30755,-3.93187 0.0673,-4.39223 -0.23165,-4.83531 -3.74215,-2.16055 -4.304,2.21726 -3.77041,2.25378 -3.25141,2.23168 -2.75124,2.15575 -2.27512,2.02504 -1.82763,1.84531 -1.41281,1.61851 -1.03522,1.34842 -0.0865,0.19225 -5.39477,-2.23552 0.0769,-0.19609 0.22106,-1.68481 0.14512,-2.14326 0.01,-2.59689 -0.17685,-3.04189 -0.42097,-3.46863 -0.72082,-3.87804 -1.07259,-4.2596 -1.47549,-4.61137 -4.17377,-1.11777 -3.58337,3.25526 -3.05881,3.15243 -2.56288,2.99767 -2.09962,2.79392 -1.67347,2.54596 -1.28759,2.2557 -0.94572,1.92796 -0.65067,1.57045 -0.0289,0.2076 -5.7892,-0.76215 0.0192,-0.20952 -0.22299,-1.68481 -0.41422,-2.10771 -0.66027,-2.51232 -0.95726,-2.89098 -1.3049,-3.24277 -1.69971,-3.55896 -2.13864,-3.83672 -2.61862,-4.07218 h -4.32082 l -2.61863,4.07218 -2.13864,3.83672 -1.69971,3.55896 -1.30489,3.24276 -0.95725,2.89099 -0.66029,2.51232 -0.41422,2.10771 -0.22298,1.6848 0.0192,0.20954 -5.78939,0.76214 -0.0288,-0.2076 -0.65067,-1.57045 -0.94571,-1.92795 -1.28759,-2.25571 -1.67348,-2.54596 -2.09961,-2.79393 -2.56288,-2.99767 -3.0588,-3.15242 -3.58338,-3.25526 -4.17378,1.11775 -1.47548,4.61138 -1.0726,4.25961 -0.72082,3.87804 -0.42096,3.46862 -0.17684,3.04189 0.01,2.5969 0.14514,2.14326 0.22104,1.6848 0.0769,0.19609 -5.39417,2.23551 -0.0864,-0.1922 -1.03519,-1.34842 -1.41283,-1.61851 -1.82763,-1.84531 -2.27512,-2.02504 -2.75126,-2.15575 -3.25141,-2.23168 -3.7704,-2.25378 -4.304,-2.21725 -3.74215,2.16055 -0.23162,4.83531 0.0672,4.39223 0.30756,3.93186 0.49112,3.46093 0.61606,2.98231 0.6843,2.50559 0.69489,2.03302 0.6497,1.57054 0.12402,0.17012 -4.63251,3.55474 -0.13268,-0.16336 -1.34889,-1.03396 -1.78361,-1.19754 -2.24284,-1.30958 -2.72193,-1.36756 -3.21537,-1.36995 -3.71822,-1.3148 -4.22529,-1.20041 -4.7316,-1.02838 -3.05535,3.05535 1.02838,4.7316 1.20042,4.2253 1.31479,3.71821 1.36995,3.21535 1.36756,2.72195 1.30959,2.24283 1.19754,1.78361 1.03396,1.3489 0.16336,0.13267 -3.55474,4.63251 -0.17014,-0.12403 -1.57053,-0.6497 -2.03301,-0.69488 -2.5056,-0.6843 -2.9823,-0.61608 -3.46093,-0.49112 -3.93187,-0.30755 -4.39225,-0.0673 -4.83529,0.23162 -2.16056,3.74215 2.21726,4.30403 2.25378,3.7704 2.2317,3.25141 2.15575,2.75123 2.02504,2.27513 1.84531,1.82763 1.61849,1.41282 1.34841,1.03522 0.19226,0.0865 -2.23553,5.39478 -0.19609,-0.0769 -1.68482,-0.22105 -2.14325,-0.14514 -2.59691,-0.01 -3.04188,0.17684 -3.46861,0.42096 -3.87805,0.72082 -4.25961,1.0726 -4.61137,1.47549 -1.11776,4.17378 3.25525,3.58337 3.15242,3.0588 2.99768,2.56288 2.79392,2.09962 2.54596,1.67348 2.25571,1.28758 1.92797,0.94572 1.57045,0.65066 0.20759,0.0288 -0.76216,5.7892 -0.20951,-0.0192 -1.68481,0.22297 -2.1077,0.41425 -2.51233,0.66026 -2.89099,0.95727 -3.24275,1.30488 -3.55896,1.69972 -3.83673,2.13864 -4.07219,2.61862 0,4.32082 4.07219,2.61862 3.83673,2.13865 3.55896,1.69971 3.24274,1.30489 2.891,0.95725 2.51233,0.66029 2.1077,0.41423 1.68481,0.22297 0.20951,-0.0192 0.76216,5.78938 -0.2076,0.0289 -1.57044,0.65066 -1.92797,0.94573 -2.25571,1.2876 -2.54596,1.67346 -2.79392,2.09962 -2.99768,2.56287 -3.15243,3.05881 -3.25525,3.58336 1.11776,4.17378 4.61137,1.47549 4.2596,1.07259 3.87806,0.72082 3.46861,0.42096 3.04188,0.17685 2.5969,-0.01 2.14326,-0.14513 1.68481,-0.22106 0.19609,-0.0769 2.23553,5.39476 -0.19225,0.0865 -1.34842,1.03521 -1.6185,1.41283 -1.84531,1.82764 -2.02503,2.27512 -2.15575,2.75123 -2.2317,3.25141 -2.25378,3.77042 -2.21725,4.30399 2.16054,3.74215 4.8353,0.23164 4.39225,-0.0673 3.93188,-0.30755 3.46091,-0.49112 2.98231,-0.61608 2.5056,-0.6843 2.03301,-0.69487 1.57054,-0.64971 0.17012,-0.12402 3.55475,4.63251 -0.16342,0.13259 -1.03396,1.34892 -1.19755,1.78361 -1.30959,2.24283 -1.36755,2.72194 -1.36996,3.21537 -1.31479,3.71822 -1.20042,4.22528 -1.02837,4.7316 3.05534,3.05535 4.73161,-1.02837 4.22528,-1.20044 3.71822,-1.31478 3.21537,-1.36995 2.72194,-1.36756 2.24283,-1.30959 1.78362,-1.19752 1.3489,-1.03396 0.13267,-0.16336 4.63251,3.55474 -0.12402,0.17012 -0.6497,1.57054 -0.69489,2.03244 -0.6843,2.50558 -0.61605,2.98232 -0.49113,3.46093 -0.30756,3.93186 -0.0672,4.39223 0.23162,4.83531 3.74215,2.16057 4.304,-2.21726 3.77039,-2.25379 3.25141,-2.23168 2.75126,-2.15575 2.27512,-2.02504 1.82764,-1.84532 1.41282,-1.61849 1.03519,-1.34843 0.0864,-0.19221 5.39476,2.23554 -0.0769,0.19608 -0.22106,1.68483 -0.14512,2.14323 -0.01,2.59691 0.17684,3.04188 0.42097,3.46863 0.72083,3.87805 1.07259,4.25959 1.47547,4.61137 4.17379,1.11776 3.58338,-3.25524 3.05879,-3.15241 2.56287,-2.99768 2.09963,-2.79393 1.67346,-2.54596 1.2876,-2.2557 0.94574,-1.92797 0.65065,-1.57045 0.0288,-0.20761 5.7892,0.76217 -0.0192,0.20951 0.22298,1.68481 0.41423,2.10769 0.66028,2.51233 0.95725,2.89101 1.3049,3.24275 1.6997,3.55896 2.13864,3.83672 2.61864,4.0722 h 4.32082 z m -11.151,-119.35331 -5.40198,-3.6096 -3.60961,-5.40189 -1.26751,-6.37211 1.26751,-6.372 3.60961,-5.40197 5.40198,-3.60962 6.37199,-1.2675 6.37203,1.2675 5.40197,3.60962 3.60961,5.40196 1.26749,6.37201 -1.2675,6.37211 -3.6096,5.40188 -5.40197,3.60961 -6.37203,1.26749 z"
       id="path5370" />
    <path
       id="path5376"
       d="m 1061.8324,877.54489 -2.1386,-3.83672 -1.6997,-3.55897 -1.3049,-3.24274 -0.9573,-2.891 -0.6602,-2.51233 -0.4143,-2.1077 -0.2229,-1.6848 0.019,-0.20953 -5.7894,-0.76216 -0.029,0.20761 -0.6507,1.57044 -0.9457,1.92797 -1.2876,2.25572 -1.6735,2.54595 -2.0996,2.79392 -2.5629,2.99767 -3.0588,3.15242 -3.5833,3.25525 -4.1738,-1.11775 -1.4755,-4.61136 -1.0726,-4.25961 -0.7208,-3.87806 -0.421,-3.4686 -0.1768,-3.0419 0.01,-2.5969 0.1451,-2.14325 0.2211,-1.68481 0.077,-0.19609 -5.3948,-2.23553 -0.087,0.19218 -1.0352,1.34843 -1.4128,1.61849 -1.8277,1.84531 -2.2751,2.02505 -2.7513,2.15575 -3.2513,2.23168 -3.7705,2.25379 -4.30397,2.21726 -3.74214,-2.16057 -0.23163,-4.83531 0.0673,-4.39222 0.30755,-3.93187 0.49111,-3.46094 0.61608,-2.98229 0.68429,-2.50559 0.69488,-2.03302 0.64971,-1.57053 0.12402,-0.17013 -4.6325,-3.55473 -0.1326,0.16342 -1.34891,1.03394 -1.78362,1.19753 -2.24283,1.30962 -2.72193,1.36755 -3.21537,1.36995 -3.71821,1.31478 -4.22529,1.20043 -4.73162,1.02838 -3.05534,-3.05534 1.0284,-4.73161 1.2004,-4.22528 1.3148,-3.71823 1.36996,-3.21537 1.36753,-2.72193 1.30961,-2.24284 1.19754,-1.78361 1.03396,-1.34891 0.16334,-0.13266 -3.55473,-4.6325 -0.17012,0.12402 -1.57053,0.64969 -2.03304,0.69489 -2.50559,0.68431 -2.9823,0.61605 -3.46093,0.49112 -3.93187,0.30755 -4.39222,0.0673 -4.83531,-0.23162 -2.16056,-3.74214 2.21726,-4.30401 2.25378,-3.7704 2.23169,-3.25141 2.15574,-2.75127 2.02504,-2.27512 1.84531,-1.82763 1.6185,-1.41281 1.34843,-1.03521 0.19218,-0.0865 -2.23551,-5.39475 -0.1961,0.0769 -1.68481,0.22104 -2.14326,0.14512 -2.5969,0.01 -3.04189,-0.17685 -3.46862,-0.42095 -3.87805,-0.72083 -4.2596,-1.07258 -4.61136,-1.47549 -1.11776,-4.17379 3.25525,-3.58336 3.15242,-3.0588 2.99768,-2.56288 2.79392,-2.09962 2.54596,-1.67346 2.25572,-1.28759 1.92794,-0.94574 1.57047,-0.65066 0.20759,-0.0288 -0.76216,-5.78921 -0.20952,0.0192 -1.68481,-0.22298 -2.10771,-0.41423 -2.5123,-0.66028 -2.891,-0.95725 -3.24276,-1.3048 -3.55897,-1.69971 -3.8367,-2.13865 -4.07221,-2.61862 10e-6,-4.32102 4.0721,-2.61862 3.83672,-2.13864 3.55894,-1.6997 3.24278,-1.305 2.89099,-0.95725 2.51231,-0.66028 2.1077,-0.41423 1.68481,-0.22298 0.20953,0.0192 0.76214,-5.7894 -0.20758,-0.0288 -1.57044,-0.65067 -1.92797,-0.94572 -2.25571,-1.28759 -2.54596,-1.67347 -2.79393,-2.09962 -2.99767,-2.56288 -3.15243,-3.05881 -3.25525,-3.58338 1.11776,-4.17376 4.61137,-1.47549 4.25961,-1.07258 3.87803,-0.72084 3.46862,-0.42095 3.04189,-0.17685 2.5969,0.01 2.14326,0.14513 1.68481,0.22105 0.19609,0.0769 2.23553,-5.39475 -0.19226,-0.0865 -1.34842,-1.03519 -1.61851,-1.41283 -1.8453,-1.82762 -2.02505,-2.27512 -2.15575,-2.75126 -2.23168,-3.25141 -2.25379,-3.77039 -2.21726,-4.30402 2.16056,-3.74214 4.83531,-0.23163 4.39223,0.0673 3.93186,0.30755 3.46094,0.49112 2.98228,0.61607 2.50561,0.68431 2.03301,0.69487 1.57055,0.64971 0.17012,0.12402 3.55473,-4.63251 -0.16335,-0.13266 -1.03397,-1.34891 -1.19752,-1.78361 -1.30959,-2.24283 -1.36756,-2.72195 -1.36996,-3.21536 -1.31479,-3.7182 -1.2004,-4.2253 -1.0284,-4.73159 3.05536,-3.05536 4.73159,1.02839 4.22531,1.20041 3.7182,1.31478 3.21537,1.36997 2.72194,1.36755 2.24282,1.3096 1.78362,1.19752 1.34891,1.03396 0.13265,0.16335 4.63253,-3.55474 -0.12402,-0.17013 -0.64971,-1.57052 -0.69488,-2.03225 -0.68429,-2.5056 -0.61608,-2.9823 -0.49112,-3.46093 -0.30755,-3.93187 -0.0673,-4.39223 0.23165,-4.83531 3.74215,-2.16055 4.30405,2.21726 3.7704,2.25378 3.2514,2.23168 2.7512,2.15575 2.2751,2.02504 1.8277,1.84531 1.4128,1.61851 1.0352,1.34842 0.087,0.19225 5.3948,-2.23552 -0.077,-0.19609 -0.2211,-1.68481 -0.1451,-2.14326 -0.01,-2.59689 0.1768,-3.04189 0.421,-3.46863 0.7208,-3.87804 1.0726,-4.2596 1.4755,-4.61137 4.1738,-1.11777 3.5833,3.25526 3.0589,3.15243 2.5628,2.99767 2.0997,2.79392 1.6734,2.54596 1.2876,2.2557 0.9457,1.92796 0.6507,1.57045 0.029,0.2076 5.7892,-0.76215 -0.019,-0.20952 0.223,-1.68481 0.4142,-2.10771 0.6603,-2.51232 0.9572,-2.89098 1.3049,-3.24277 1.6998,-3.55896 2.1386,-3.83672 2.6186,-4.07218 h 4.3208 l 2.6187,4.07218 2.1386,3.83672 1.6997,3.55896 1.3049,3.24276 0.9573,2.89099 0.6602,2.51232 0.4143,2.10771 0.2229,1.6848 -0.019,0.20954 5.7894,0.76214 0.029,-0.2076 0.6507,-1.57045 0.9457,-1.92795 1.2876,-2.25571 1.6735,-2.54596 2.0996,-2.79393 2.5629,-2.99767 3.0588,-3.15242 3.5834,-3.25526 4.1737,1.11775 1.4755,4.61138 1.0726,4.25961 0.7208,3.87804 0.421,3.46862 0.1768,3.04189 -0.01,2.5969 -0.1451,2.14326 -0.221,1.6848 -0.077,0.19609 5.3941,2.23551 0.086,-0.1922 1.0352,-1.34842 1.4128,-1.61851 1.8277,-1.84531 2.2751,-2.02504 2.7513,-2.15575 3.2514,-2.23168 3.7704,-2.25378 4.304,-2.21725 3.7421,2.16055 0.2316,4.83531 -0.067,4.39223 -0.3075,3.93186 -0.4911,3.46093 -0.6161,2.98231 -0.6843,2.50559 -0.6949,2.03302 -0.6497,1.57054 -0.124,0.17012 4.6325,3.55474 0.1327,-0.16336 1.3489,-1.03396 1.7836,-1.19754 2.2428,-1.30958 2.7219,-1.36756 3.2154,-1.36995 3.7182,-1.3148 4.2253,-1.20041 4.7316,-1.02838 3.0554,3.05535 -1.0284,4.7316 -1.2004,4.2253 -1.3148,3.71821 -1.37,3.21535 -1.3675,2.72195 -1.3096,2.24283 -1.1976,1.78361 -1.0339,1.3489 -0.1634,0.13267 3.5548,4.63251 0.1701,-0.12403 1.5705,-0.6497 2.033,-0.69488 2.5056,-0.6843 2.9823,-0.61608 3.461,-0.49112 3.9318,-0.30755 4.3923,-0.0673 4.8353,0.23162 2.1605,3.74215 -2.2172,4.30403 -2.2538,3.7704 -2.2317,3.25141 -2.1557,2.75123 -2.0251,2.27513 -1.8453,1.82763 -1.6185,1.41282 -1.3484,1.03522 -0.1923,0.0865 2.2356,5.39478 0.1961,-0.0769 1.6848,-0.22105 2.1432,-0.14514 2.5969,-0.01 3.0419,0.17684 3.4686,0.42096 3.8781,0.72082 4.2596,1.0726 4.6114,1.47549 1.1177,4.17378 -3.2552,3.58337 -3.1524,3.0588 -2.9977,2.56288 -2.7939,2.09962 -2.546,1.67348 -2.2557,1.28758 -1.928,0.94572 -1.5704,0.65066 -0.2076,0.0288 0.7621,5.7892 0.2095,-0.0192 1.6849,0.22297 2.1077,0.41425 2.5123,0.66026 2.891,0.95727 3.2427,1.30488 3.559,1.69972 3.8367,2.13864 4.0722,2.61862 v 4.32082 l -4.0722,2.61862 -3.8367,2.13865 -3.559,1.69971 -3.2427,1.30489 -2.891,0.95725 -2.5123,0.66029 -2.1077,0.41423 -1.6849,0.22297 -0.2095,-0.0192 -0.7621,5.78938 0.2076,0.0289 1.5704,0.65066 1.928,0.94573 2.2557,1.2876 2.546,1.67346 2.7939,2.09962 2.9976,2.56287 3.1525,3.05881 3.2552,3.58336 -1.1177,4.17378 -4.6114,1.47549 -4.2596,1.07259 -3.8781,0.72082 -3.4686,0.42096 -3.0418,0.17685 -2.5969,-0.01 -2.1433,-0.14513 -1.6848,-0.22106 -0.1961,-0.0769 -2.2355,5.39476 0.1922,0.0865 1.3484,1.03521 1.6185,1.41283 1.8453,1.82764 2.0251,2.27512 2.1557,2.75123 2.2317,3.25141 2.2538,3.77042 2.2173,4.30399 -2.1606,3.74215 -4.8353,0.23164 -4.3922,-0.0673 -3.9319,-0.30755 -3.4609,-0.49112 -2.9823,-0.61608 -2.5056,-0.6843 -2.033,-0.69487 -1.5706,-0.64971 -0.1701,-0.12402 -3.5548,4.63251 0.1635,0.13259 1.0339,1.34892 1.1976,1.78361 1.3096,2.24283 1.3675,2.72194 1.37,3.21537 1.3148,3.71822 1.2004,4.22528 1.0284,4.7316 -3.0554,3.05535 -4.7316,-1.02837 -4.2253,-1.20044 -3.7182,-1.31478 -3.2154,-1.36995 -2.7219,-1.36756 -2.2428,-1.30959 -1.7837,-1.19752 -1.3489,-1.03396 -0.1326,-0.16336 -4.6325,3.55474 0.124,0.17012 0.6497,1.57054 0.6949,2.03244 0.6843,2.50558 0.616,2.98232 0.4912,3.46093 0.3075,3.93186 0.067,4.39223 -0.2316,4.83531 -3.7422,2.16057 -4.304,-2.21726 -3.7703,-2.25379 -3.2515,-2.23168 -2.7512,-2.15575 -2.2751,-2.02504 -1.8277,-1.84532 -1.4128,-1.61849 -1.0352,-1.34843 -0.086,-0.19221 -5.3947,2.23554 0.077,0.19608 0.221,1.68483 0.1451,2.14323 0.01,2.59691 -0.1768,3.04188 -0.421,3.46863 -0.7208,3.87805 -1.0726,4.25959 -1.4755,4.61137 -4.1738,1.11776 -3.5833,-3.25524 -3.0588,-3.15241 -2.5629,-2.99768 -2.0996,-2.79393 -1.6735,-2.54596 -1.2876,-2.2557 -0.9457,-1.92797 -0.6507,-1.57045 -0.029,-0.20761 -5.7892,0.76217 0.019,0.20951 -0.223,1.68481 -0.4142,2.10769 -0.6603,2.51233 -0.9572,2.89101 -1.3049,3.24275 -1.6997,3.55896 -2.1387,3.83672 -2.6186,4.0722 h -4.3208 z m 11.151,-119.35331 5.402,-3.6096 3.6096,-5.40189 1.2675,-6.37211 -1.2675,-6.372 -3.6096,-5.40197 -5.402,-3.60962 -6.372,-1.2675 -6.372,1.2675 -5.402,3.60962 -3.6096,5.40196 -1.2675,6.37201 1.2675,6.37211 3.6096,5.40188 5.402,3.60961 6.372,1.26749 z"
       inkscape:connector-curvature="0"
       style="display:inline;fill:#d45500;stroke:#000000;stroke-width:4" />
    <path
       id="path5388"
       style="opacity:1;fill:#ececec;fill-opacity:1;stroke:none;stroke-width:3.78330731;stroke-miterlimit:4;stroke-dasharray:none;stroke-dashoffset:0;stroke-opacity:1;paint-order:normal"
       d="m 2490.8928,223.66298 a 133.23248,133.23248 0 0 1 0,188.42104 133.23248,133.23248 0 0 1 -188.4198,-7.2e-4 133.23248,133.23248 0 0 1 -2e-4,-188.41867 133.23248,133.23248 0 0 1 188.42,-7.2e-4 z m -31.2006,-145.035149 -126.0175,-8.94e-4 -176.2374,176.237483 -2e-4,126.019 176.2375,176.23749 126.0176,-8.9e-4 176.2374,-176.23749 2e-4,-126.01602 z"
       inkscape:export-filename="C:\Users\rwb34\Downloads\microscope_icon_2.png"
       inkscape:export-xdpi="11.187879"
       inkscape:export-ydpi="11.187879" />
    <g
       id="g5439"
       style="stroke:none"
       inkscape:export-filename="C:\Users\rwb34\Downloads\microscope_icon_2.png"
       inkscape:export-xdpi="11.187879"
       inkscape:export-ydpi="11.187879">
      <path
         id="path5390"
         d="m 1771.9523,931.9483 1.5905,-5.59683 1.7415,-4.92543 1.8151,-4.25958 1.8111,-3.60449 1.7347,-2.9715 1.5862,-2.36223 1.3694,-1.78682 0.2139,-0.17844 -4.7086,-6.13652 -0.2217,0.16729 -2.0805,0.86153 -2.6915,0.91997 -3.3188,0.90676 -3.9521,0.81722 -4.5836,0.65032 -5.2083,0.40724 -5.8177,0.0877 -6.4054,-0.30731 -2.8622,-4.95627 2.9371,-5.70126 2.985,-4.99437 2.9573,-4.30744 2.8545,-3.64318 2.6836,-3.01477 2.4418,-2.42302 2.1433,-1.87159 1.7852,-1.37096 0.2558,-0.11154 -2.959,-7.14687 -0.2617,0.0986 -2.2324,0.29335 -2.8394,0.19267 -3.4402,0.0165 -4.0278,-0.23417 -4.5962,-0.55787 -5.1355,-0.95501 -5.6428,-1.42061 -6.1079,-1.95449 -1.4814,-5.52873 4.312,-4.74587 4.1768,-4.05128 3.9707,-3.39467 3.7019,-2.78165 3.3703,-2.21638 2.9878,-1.70592 2.555,-1.25333 2.0796,-0.86246 0.2755,-0.0432 -1.0096,-7.66858 -0.2772,0.0289 -2.2319,-0.29504 -2.7921,-0.54898 -3.3274,-0.87407 -3.8305,-1.2686 -4.2948,-1.72848 -4.714,-2.25113 -5.0821,-2.83317 -5.395,-3.46868 -10e-5,-5.72353 5.3951,-3.46859 5.0819,-2.83326 4.7142,-2.25113 4.2948,-1.72848 3.8304,-1.26859 3.3275,-0.87418 2.7922,-0.54887 2.2319,-0.29503 0.2771,0.0289 1.0096,-7.66858 -0.2755,-0.0432 -2.0796,-0.86246 -2.5551,-1.25342 -2.9878,-1.70592 -3.3704,-2.21637 -3.7016,-2.78165 -3.9709,-3.39468 -4.1767,-4.05117 -4.312,-4.74588 1.4814,-5.52873 6.1081,-1.95459 5.6426,-1.42052 5.1356,-0.95511 4.5962,-0.55785 4.0278,-0.23417 3.4401,0.0165 2.8394,0.19266 2.2324,0.29336 0.2617,0.0986 2.959,-7.14687 -0.2558,-0.11153 -1.7851,-1.37106 -2.1434,-1.87151 -2.4418,-2.42301 -2.6834,-3.01486 -2.8547,-3.64308 -2.9573,-4.30764 -2.9851,-4.99427 -2.937,-5.70118 2.8624,-4.95635 6.4054,-0.30731 5.8176,0.0876 5.2084,0.40726 4.5834,0.6503 3.9521,0.81732 3.3188,0.90676 2.6916,0.91989 2.0804,0.86162 0.2217,0.16729 4.7085,-6.13638 -0.2142,-0.17824 -1.3693,-1.78692 -1.5861,-2.36215 -1.7347,-2.97157 -1.8112,-3.60446 -1.8152,-4.25947 -1.7416,-4.92554 -1.5905,-5.59678 -1.3614,-6.26692 4.0473,-4.04726 6.2668,1.36139 5.5968,1.59057 4.9255,1.74142 4.2596,1.81503 3.6045,1.81124 2.9715,1.73467 2.3622,1.58619 1.7869,1.3692 0.1782,0.21422 6.1366,-4.7087 -0.1674,-0.22143 -0.8616,-2.08045 -0.9199,-2.69155 -0.9069,-3.31881 -0.8173,-3.95214 -0.6503,-4.58348 -0.4072,-5.20829 -0.087,-5.81771 0.3072,-6.40539 4.9563,-2.86235 5.7013,2.93723 4.9942,2.98509 4.3076,2.95714 3.6431,2.85457 3.0149,2.68353 2.423,2.44174 1.8716,2.14344 1.3709,1.78511 0.1114,0.2557 7.1467,-2.95909 -0.099,-0.26115 -0.2933,-2.23257 -0.1926,-2.83926 -0.018,-3.44024 0.2342,-4.02767 0.5577,-4.59618 0.9551,-5.13572 1.4206,-5.64253 1.9546,-6.10806 5.5287,-1.48144 4.7459,4.31201 4.0509,4.17705 3.3948,3.97078 2.7817,3.70172 2.2163,3.3704 1.7058,2.98782 1.2534,2.55503 0.8625,2.07955 0.044,0.27549 7.6686,-1.00943 -0.029,-0.27731 0.295,-2.23185 0.549,-2.79232 0.8741,-3.32737 1.2686,-3.83037 1.7284,-4.29485 2.2511,-4.71413 2.8334,-5.08195 3.4684,-5.39505 5.7237,2e-5 3.4686,5.39506 2.8333,5.08197 2.251,4.71411 1.7286,4.29487 1.2686,3.83036 0.874,3.32733 0.5489,2.79225 0.2952,2.23198 -0.029,0.27721 7.6686,1.00948 0.044,-0.2755 0.8625,-2.07955 1.2527,-2.55437 1.7059,-2.98781 2.2163,-3.37032 2.7817,-3.70174 3.3946,-3.9708 4.0512,-4.1767 4.7459,-4.31203 5.5288,1.48143 1.9546,6.10811 1.4205,5.64251 0.9551,5.13569 0.5578,4.59608 0.2342,4.0277 -0.015,3.4403 -0.1926,2.83927 -0.2934,2.23259 -0.098,0.26157 7.1468,2.95912 0.1113,-0.2558 1.371,-1.78516 1.8715,-2.14337 2.423,-2.44173 3.0148,-2.68358 3.6432,-2.85455 4.3076,-2.95719 4.9943,-2.9851 5.7013,-2.93719 4.9563,2.86241 0.3071,6.4053 -0.087,5.81781 -0.4073,5.20817 -0.6504,4.5835 -0.8172,3.95213 -0.9067,3.31881 -0.9201,2.6916 -0.8615,2.08043 -0.1673,0.2216 6.1364,4.70857 0.1784,-0.21406 1.7869,-1.36918 2.3622,-1.58621 2.9716,-1.73469 3.6043,-1.81127 4.2596,-1.81509 4.9257,-1.74137 5.5967,-1.59055 6.2669,-1.36148 4.047,4.04705 -1.3614,6.26698 -1.5906,5.59676 -1.7415,4.92549 -1.8149,4.25954 -1.8114,3.60448 -1.7347,2.97152 -1.586,2.36223 -1.3693,1.78683 -0.214,0.17848 4.7087,6.13646 0.2216,-0.16728 2.0804,-0.86148 2.6915,-0.92003 3.3189,-0.90677 3.9521,-0.81719 4.5835,-0.65033 5.2083,-0.40723 5.8177,-0.0877 6.4054,0.30736 2.8623,4.9562 -2.9373,5.70124 -2.985,4.99439 -2.9571,4.30747 -2.8546,3.64319 -2.6835,3.01478 -2.4418,2.423 -2.1433,1.87158 -1.7851,1.37104 -0.2558,0.11154 2.9584,7.14623 0.2606,-0.0994 2.2326,-0.29337 2.8393,-0.19269 3.4403,-0.0164 4.0277,0.23421 4.5962,0.55783 5.1357,0.95511 5.6424,1.42054 6.1082,1.95454 1.4813,5.52868 -4.312,4.7459 -4.1767,4.0512 -3.9708,3.39474 -3.7017,2.78167 -3.3704,2.2163 -2.9877,1.70589 -2.5552,1.25335 -2.0796,0.86251 -0.2755,0.0432 1.0095,7.66853 0.2774,-0.0287 2.2318,0.29499 2.7923,0.54894 3.3273,0.87407 3.8304,1.26854 4.2948,1.72854 4.7142,2.25114 5.0818,2.83324 5.3952,3.4686 v 5.72359 l -5.395,3.46859 -5.082,2.83326 -4.7142,2.25113 -4.2948,1.72843 -3.8304,1.26864 -3.3273,0.87412 -2.7924,0.54887 -2.2318,0.29505 -0.2773,-0.0287 -1.0095,7.66859 0.2755,0.0432 2.0796,0.86245 2.555,1.25334 2.9878,1.70592 3.3705,2.21631 3.7017,2.78171 3.9708,3.39464 4.1769,4.05099 4.3121,4.74589 -1.4814,5.52869 -6.1082,1.95462 -5.6424,1.42052 -5.1358,0.95509 -4.5961,0.55781 -4.0277,0.23419 -3.4403,-0.0165 -2.8392,-0.19266 -2.2325,-0.29332 -0.2612,-0.0991 -2.959,7.14696 0.2556,0.11167 1.7851,1.371 2.1433,1.87147 2.4418,2.42301 2.6835,3.01481 2.8546,3.64314 2.9572,4.30755 2.9852,4.99438 2.9372,5.70125 -2.8625,4.95623 -6.4053,0.30738 -5.8177,-0.0877 -5.2083,-0.40718 -4.5835,-0.65039 -3.9521,-0.81714 -3.3188,-0.9068 -2.6915,-0.92003 -2.0805,-0.86148 -0.2214,-0.16747 -4.7086,6.13624 0.2142,0.17824 1.3692,1.7869 1.5862,2.36218 1.7348,2.97166 1.8112,3.60446 1.8151,4.25946 1.7414,4.92555 1.5905,5.59677 1.3615,6.26698 -4.047,4.04702 -6.2671,-1.36153 -5.5967,-1.59046 -4.9254,-1.74143 -4.2596,-1.81511 -3.6044,-1.81114 -2.9716,-1.73484 -2.3622,-1.58618 -1.7869,-1.36921 -0.1783,-0.21421 -6.1364,4.70887 0.1672,0.22156 0.8616,2.08027 0.92,2.69177 0.9068,3.3188 0.8171,3.95198 0.6504,4.58352 0.4072,5.20834 0.087,5.81763 -0.3075,6.40535 -4.9563,2.86246 -5.7012,-2.93734 -4.9943,-2.98502 -4.3076,-2.95716 -3.6431,-2.85453 -3.0148,-2.68351 -2.4231,-2.4418 -1.8713,-2.14337 -1.3711,-1.78505 -0.1113,-0.25581 -7.1468,2.95903 0.099,0.26055 0.2934,2.23268 0.1926,2.83933 0.015,3.44015 -0.2342,4.02774 -0.5577,4.59619 -0.9552,5.13566 -1.4206,5.64256 -1.9546,6.108 -5.5287,1.4814 -4.7457,-4.3119 -4.0513,-4.1768 -3.3947,-3.97077 -2.7817,-3.70168 -2.2162,-3.37044 -1.706,-2.98777 -1.2533,-2.55501 -0.8626,-2.07961 -0.044,-0.27552 -7.6687,1.00947 0.029,0.27728 -0.2951,2.23191 -0.5488,2.79231 -0.8741,3.32727 -1.2685,3.8303 -1.7286,4.29486 -2.2512,4.7143 -2.8331,5.0819 -3.4687,5.395 -5.7236,10e-5 -3.4685,-5.3951 -2.8333,-5.0819 -2.2512,-4.7143 -1.7284,-4.29486 -1.2686,-3.8303 -0.8742,-3.32727 -0.5489,-2.79242 -0.295,-2.2318 0.029,-0.27728 -7.6686,-1.00947 -0.044,0.27552 -0.8624,2.0795 -1.2528,2.55468 -1.7058,2.98777 -2.2165,3.37033 -2.7815,3.70168 -3.3948,3.97082 -4.0512,4.1767 -4.7459,4.3121 -5.5287,-1.4815 -1.9546,-6.1082 -1.4204,-5.64241 -0.9552,-5.13566 -0.5578,-4.59608 -0.2342,-4.02774 0.015,-3.44026 0.1927,-2.83933 0.2932,-2.23268 0.099,-0.26055 -7.1468,-2.95903 -0.1112,0.25581 -1.3712,1.78515 -1.8715,2.14338 -2.4229,2.44169 -3.0148,2.68362 -3.6432,2.85453 -4.3075,2.95727 -4.9943,2.98502 -5.7013,2.93712 -4.9564,-2.86235 -0.3071,-6.40524 0.087,-5.81774 0.4071,-5.20834 0.6503,-4.58352 0.8172,-3.95198 0.9068,-3.3188 0.9201,-2.69166 0.8616,-2.08049 0.1672,-0.22157 -6.1364,-4.70858 -0.1784,0.21402 -1.7869,1.36919 -2.3622,1.58621 -2.9715,1.73463 -3.6044,1.81136 -4.2596,1.81511 -4.9256,1.74154 -5.5968,1.59035 -6.2668,1.36153 -4.0471,-4.04702 z m 122.2361,-101.34716 8.4407,1.67887 8.4406,-1.67872 7.1556,-4.78122 4.781,-7.1555 1.6789,-8.44062 -1.6789,-8.44068 -4.781,-7.15551 -7.1556,-4.78109 -8.4407,-1.67883 -8.4406,1.67881 -7.1554,4.78111 -4.7812,7.15559 -1.6789,8.44056 1.679,8.44064 4.7811,7.15549 z"
         inkscape:connector-curvature="0"
         style="display:inline;fill:#ececec;stroke:none;stroke-width:4.00400019;stroke-miterlimit:4;stroke-dasharray:none" />
      <path
         style="display:inline;fill:#ececec;stroke:none;stroke-width:4.00400019;stroke-miterlimit:4;stroke-dasharray:none"
         inkscape:connector-curvature="0"
         d="m 1780.9041,448.55141 5.597,-1.59045 4.9254,-1.74148 4.2595,-1.81506 3.6045,-1.81128 2.9715,-1.7347 2.3621,-1.58621 1.787,-1.36918 0.1784,-0.21405 6.1365,4.70873 -0.1673,0.22162 -0.8614,2.08032 -0.9201,2.69171 -0.9067,3.31882 -0.8173,3.95204 -0.6503,4.58357 -0.4073,5.20819 -0.087,5.81771 0.3074,6.40538 4.9563,2.86242 5.7011,-2.93717 4.9944,-2.9852 4.3076,-2.95713 3.643,-2.85461 3.0149,-2.68349 2.423,-2.44174 1.8716,-2.14335 1.371,-1.78518 0.1112,-0.25579 7.147,2.95911 -0.099,0.26056 -0.2935,2.23263 -0.1927,2.83924 -0.018,3.4402 0.2342,4.02773 0.5579,4.59615 0.9551,5.13571 1.4205,5.6425 1.9545,6.10811 5.5287,1.48143 4.7461,-4.31203 4.0512,-4.17672 3.3945,-3.97088 2.7817,-3.70164 2.2163,-3.37043 1.706,-2.9877 1.2534,-2.55509 0.8625,-2.07957 0.044,-0.27559 7.6684,1.0095 -0.029,0.27728 0.2951,2.23195 0.549,2.79227 0.8741,3.32735 1.2685,3.83034 1.7286,4.29487 2.251,4.71411 2.8333,5.08198 3.4686,5.39504 5.7236,6e-5 3.4686,-5.39508 2.8332,-5.08193 2.2511,-4.71415 1.7286,-4.29486 1.2686,-3.83035 0.8741,-3.32737 0.5488,-2.79233 0.295,-2.23185 -0.029,-0.27731 7.6687,-1.00942 0.044,0.27549 0.8625,2.07953 1.2533,2.55506 1.7058,2.98782 2.2164,3.37036 2.7817,3.70173 3.3947,3.97078 4.051,4.17705 4.7459,4.312 5.5287,-1.48142 1.9546,-6.10806 1.4205,-5.64253 0.955,-5.13573 0.5579,-4.5961 0.2341,-4.02777 -0.015,-3.44021 -0.1926,-2.83926 -0.2934,-2.23261 -0.099,-0.26104 7.1469,-2.95909 0.1112,0.25571 1.371,1.78508 1.8716,2.14344 2.423,2.44175 3.0149,2.68352 3.6432,2.85457 4.3073,2.95714 4.9945,2.98512 5.7011,2.93723 4.9564,-2.86238 0.3073,-6.40539 -0.087,-5.81768 -0.4073,-5.2083 -0.6502,-4.58348 -0.8172,-3.95214 -0.9069,-3.31879 -0.9199,-2.69159 -0.8616,-2.08044 -0.1674,-0.22142 6.1362,-4.70851 0.1783,0.2142 1.7869,1.36921 2.3622,1.58618 2.9716,1.73468 3.6043,1.81123 4.2596,1.81523 4.9255,1.74139 5.5968,1.59046 6.2668,1.36149 4.0472,-4.04724 -1.3613,-6.26684 -1.5904,-5.59677 -1.7415,-4.92543 -1.815,-4.25968 -1.8112,-3.60443 -1.7347,-2.97159 -1.5861,-2.36215 -1.3693,-1.78691 -0.2142,-0.17824 4.7087,-6.13652 0.2214,0.16747 2.0803,0.86146 2.6918,0.92005 3.3188,0.90677 3.9521,0.81725 4.5834,0.65031 5.2082,0.40725 5.8178,0.0877 6.4054,-0.3073 2.8624,-4.95631 -2.9372,-5.70126 -2.9852,-4.99436 -2.957,-4.30747 -2.8547,-3.64313 -2.6836,-3.01482 -2.4416,-2.423 -2.1434,-1.87157 -1.7852,-1.37102 -0.2557,-0.11167 2.9591,-7.14683 0.261,0.099 2.2328,0.29347 2.8391,0.19263 3.4404,0.0165 4.0276,-0.23428 4.5961,-0.55773 5.1358,-0.95511 5.6425,-1.4206 6.108,-1.95452 1.4815,-5.52875 -4.312,-4.74592 -4.177,-4.0509 -3.9709,-3.39473 -3.7016,-2.78161 -3.3705,-2.21633 -2.9878,-1.7059 -2.5551,-1.25335 -2.0795,-0.86247 -0.2755,-0.0432 1.0095,-7.6685 0.2773,0.0288 2.2318,-0.29506 2.7923,-0.54897 3.3275,-0.87412 3.8304,-1.26855 4.2948,-1.72843 4.714,-2.25121 5.082,-2.83327 5.395,-3.46856 10e-5,-5.72352 -5.3951,-3.4686 -5.0819,-2.83325 -4.7141,-2.25114 -4.2948,-1.72852 -3.8304,-1.26855 -3.3274,-0.87406 -2.7924,-0.54905 -2.2318,-0.29499 -0.2773,0.0287 -1.0095,-7.66863 0.2755,-0.043 2.0798,-0.86247 2.5542,-1.25262 2.9878,-1.70601 3.3703,-2.21628 3.7017,-2.78169 3.9709,-3.39465 4.1766,-4.0512 4.3121,-4.74598 -1.4813,-5.52869 -6.1083,-1.95452 -5.6424,-1.42055 -5.1357,-0.95511 -4.5962,-0.55781 -4.0277,-0.23422 -3.4402,0.0165 -2.8393,0.19268 -2.2327,0.29337 -0.2605,0.0994 -2.9592,-7.14691 0.2559,-0.11153 1.785,-1.37107 2.1435,-1.87146 2.4418,-2.423 2.6834,-3.01487 2.8545,-3.64319 2.9572,-4.30747 2.9852,-4.99439 2.9371,-5.70124 -2.8623,-4.95622 -6.4055,-0.30735 -5.8176,0.0877 -5.2083,0.40721 -4.5835,0.65034 -3.952,0.81719 -3.3188,0.90677 -2.6917,0.92002 -2.0804,0.86147 -0.2217,0.16729 -4.7085,-6.13629 0.214,-0.17844 1.3694,-1.78685 1.5861,-2.36222 1.7347,-2.97153 1.8113,-3.60446 1.815,-4.25956 1.7414,-4.9255 1.5907,-5.59675 1.3613,-6.26697 -4.047,-4.04705 -6.2669,1.36149 -5.5969,1.59044 -4.9254,1.74146 -4.2596,1.81509 -3.6044,1.81127 -2.9717,1.73468 -2.362,1.58622 -1.7869,1.36919 -0.1786,0.21405 -6.1364,-4.70875 0.1673,-0.2216 0.8614,-2.08043 0.92,-2.6916 0.9069,-3.3188 0.8173,-3.95205 0.6503,-4.5835 0.4072,-5.20828 0.087,-5.81769 -0.3074,-6.4054 -4.9563,-2.86244 -5.7012,2.93721 -4.9944,2.98509 -4.3075,2.95722 -3.6431,2.85463 -3.0149,2.68346 -2.423,2.44175 -1.8714,2.14347 -1.371,1.78507 -0.1114,0.25577 -7.1462,-2.95857 0.099,-0.26057 0.2933,-2.2326 0.1927,-2.83926 0.015,-3.44021 -0.2342,-4.02771 -0.5578,-4.59616 -0.9552,-5.13569 -1.4205,-5.64251 -1.9545,-6.1081 -5.5288,-1.48143 -4.746,4.31203 -4.0512,4.1767 -3.3945,3.97087 -2.7818,3.70165 -2.2164,3.37044 -1.7057,2.98778 -1.2535,2.555 -0.8625,2.07958 -0.044,0.27558 -7.6687,-1.00947 0.029,-0.27731 -0.295,-2.23189 -0.549,-2.79227 -0.8742,-3.3274 -1.2685,-3.83038 -1.7285,-4.29484 -2.2511,-4.71413 -2.8332,-5.08197 -3.4687,-5.39505 -5.7235,5e-5 -3.4686,5.39506 -2.8333,5.08196 -2.251,4.71415 -1.7286,4.29475 -1.2685,3.83045 -0.8741,3.32736 -0.5491,2.79224 -0.295,2.23193 0.029,0.27723 -7.6686,1.00951 -0.044,-0.27559 -0.8625,-2.07953 -1.2534,-2.55506 -1.7058,-2.9878 -2.2164,-3.3704 -2.7815,-3.70164 -3.3947,-3.97086 -4.051,-4.17697 -4.7459,-4.312 -5.5287,1.48135 -1.9546,6.10816 -1.4207,5.64244 -0.9551,5.13573 -0.5576,4.59614 -0.2343,4.02769 0.018,3.44024 0.1926,2.83926 0.2933,2.23261 0.099,0.26113 -7.1467,2.95913 -0.1114,-0.25571 -1.371,-1.78511 -1.8716,-2.14344 -2.4229,-2.44174 -3.0149,-2.68356 -3.6431,-2.85455 -4.3073,-2.95715 -4.9945,-2.98509 -5.7014,-2.93723 -4.9562,2.86238 -0.3074,6.40539 0.087,5.81768 0.4073,5.20829 0.6503,4.58349 0.8173,3.95216 0.9069,3.31877 0.9199,2.69157 0.8615,2.08044 0.1675,0.22142 -6.1364,4.7085 -0.1783,-0.2142 -1.7869,-1.36922 -2.3621,-1.58615 -2.9715,-1.7347 -3.6046,-1.81122 -4.2594,-1.81515 -4.9256,-1.74139 -5.5967,-1.59058 -6.2669,-1.36149 -4.0472,4.04708 1.3615,6.26692 1.5906,5.59688 1.7414,4.92544 1.8151,4.25957 1.8112,3.60443 1.7347,2.97159 1.5861,2.36216 1.3693,1.7869 0.2142,0.17824 -4.7086,6.1365 -0.2217,-0.16738 -2.0803,-0.86156 -2.6916,-0.91994 -3.3188,-0.90675 -3.9521,-0.81728 -4.5835,-0.65029 -5.2083,-0.40728 -5.8177,-0.0876 -6.4053,0.30728 -2.8624,4.95634 2.937,5.70114 2.9853,4.99437 2.9571,4.30756 2.8546,3.64313 2.6835,3.01481 2.4418,2.42301 2.1433,1.87158 1.7852,1.37099 0.2557,0.11168 -2.959,7.14683 -0.2612,-0.0991 -2.2326,-0.29335 -2.8393,-0.19264 -3.4403,-0.0165 -4.0276,0.23427 -4.5961,0.55771 -5.1357,0.9551 -5.6426,1.42054 -6.108,1.95457 -1.4815,5.52869 4.312,4.74592 4.1771,4.05099 3.9709,3.39472 3.7017,2.78163 3.3703,2.21631 2.9878,1.70592 2.555,1.25335 2.0796,0.86245 0.2756,0.0433 -1.0097,7.6685 -0.2772,-0.0288 -2.2319,0.29497 -2.7923,0.54897 -3.3274,0.87409 -3.8304,1.26855 -4.2948,1.72854 -4.7141,2.25116 -5.0819,2.83323 -5.395,3.46859 -2e-4,5.72351 5.3952,3.46861 5.0819,2.83322 4.7141,2.25114 4.2948,1.72853 3.8305,1.26863 3.3273,0.87408 2.7923,0.54896 2.2319,0.29498 0.2772,-0.0288 1.0096,7.66854 -0.2754,0.0432 -2.0797,0.8625 -2.5545,1.25279 -2.9878,1.7059 -3.3705,2.21631 -3.7016,2.78167 -3.9708,3.39465 -4.1768,4.0512 -4.3119,4.74598 1.4813,5.5287 6.1081,1.95454 5.6426,1.42054 5.1357,0.95511 4.596,0.5578 4.0279,0.23423 3.4401,-0.0165 2.8394,-0.19266 2.2324,-0.29338 0.2607,-0.0994 2.959,7.14691 -0.2557,0.11154 -1.7852,1.37098 -2.1433,1.87154 -2.4418,2.42301 -2.6834,3.01486 -2.8548,3.64311 -2.957,4.30759 -2.9851,4.99425 -2.9373,5.70124 2.8624,4.95631 6.4054,0.30737 5.8178,-0.0877 5.2081,-0.40733 4.5835,-0.65024 3.9521,-0.81727 3.3189,-0.90678 2.6916,-0.91994 2.0804,-0.86158 0.2216,-0.16729 4.7085,6.13631 -0.214,0.17844 -1.3692,1.78694 -1.5861,2.36211 -1.7347,2.97163 -1.8112,3.60449 -1.8152,4.25954 -1.7414,4.92548 -1.5906,5.59676 -1.3614,6.2669 4.047,4.04715 z m 101.3472,-122.23614 -1.6789,-8.44067 1.6787,-8.44056 4.7812,-7.1556 7.1556,-4.7811 8.4405,-1.67881 8.4407,1.67881 7.1555,4.78111 4.7811,7.15549 1.6788,8.44069 -1.6787,8.44064 -4.7812,7.15549 -7.1556,4.78121 -8.4406,1.67872 -8.4405,-1.67883 -7.1556,-4.7811 z"
         id="path5392" />
      <path
         d="m 2388.2437,830.6012 8.4407,1.67882 8.4406,-1.67868 7.1556,-4.78119 4.7811,-7.15544 1.6787,-8.44071 -1.6787,-8.44072 -4.7811,-7.15543 -7.1556,-4.78107 -8.4406,-1.67882 -8.4407,1.67882 -7.1555,4.78107 -4.7811,7.15557 -1.6788,8.44058 1.6789,8.44071 4.781,7.15544 z m -122.2369,101.34711 1.5906,-5.59677 1.7414,-4.92544 1.8151,-4.25957 1.8112,-3.60441 1.7347,-2.97164 1.5862,-2.36218 1.3693,-1.78678 0.214,-0.17856 -4.7087,-6.13642 -0.2216,0.16731 -2.0804,0.86139 -2.6917,0.92008 -3.3188,0.90683 -3.9521,0.81716 -4.5836,0.65039 -5.2083,0.40718 -5.8176,0.0874 -6.4053,-0.30731 -2.8624,-4.95631 2.9372,-5.70114 2.9851,-4.99446 2.9572,-4.30752 2.8545,-3.64309 2.6837,-3.01483 2.4416,-2.42296 2.1433,-1.87156 1.7852,-1.37098 0.2558,-0.11128 -2.959,-7.14694 -0.2616,0.098 -2.2325,0.29341 -2.8394,0.1926 -3.4402,0.0172 -4.0277,-0.2342 -4.5961,-0.55779 -5.1357,-0.95505 -5.6425,-1.42064 -6.1082,-1.95462 -1.4814,-5.52865 4.3122,-4.74585 4.1766,-4.0512 3.9708,-3.39472 3.7016,-2.7817 3.3705,-2.21635 2.9877,-1.70583 2.5552,-1.25336 2.0795,-0.86244 0.2755,-0.0437 -1.0095,-7.66847 -0.2772,0.0292 -2.2319,-0.29499 -2.7922,-0.54893 -3.3275,-0.87424 -3.8304,-1.26845 -4.2948,-1.72863 -4.7141,-2.25105 -5.0821,-2.83322 -5.395,-3.46863 v -5.72354 l 5.3951,-3.46863 5.082,-2.83322 4.7141,-2.25105 4.2948,-1.72863 3.8304,-1.26845 3.3275,-0.87411 2.7921,-0.54906 2.232,-0.29499 0.2772,0.0292 1.0095,-7.66847 -0.2755,-0.0437 -2.0797,-0.8626 -2.555,-1.2533 -2.9878,-1.70591 -3.3704,-2.21633 -3.7016,-2.78163 -3.9708,-3.39473 -4.1771,-4.0509 -4.3119,-4.7459 1.4814,-5.52876 6.108,-1.95451 5.6427,-1.42052 5.1356,-0.9551 4.5961,-0.55784 4.0276,-0.23428 3.4404,0.0165 2.8391,0.19266 2.2328,0.29344 0.261,0.099 2.959,-7.14692 -0.2558,-0.11166 -1.785,-1.37104 -2.1434,-1.8715 -2.4416,-2.423 -2.6836,-3.01482 -2.8545,-3.64313 -2.9573,-4.30756 -2.985,-4.99436 -2.9372,-5.70116 2.8623,-4.95633 6.4053,-0.30737 5.8178,0.0878 5.2081,0.40717 4.5836,0.65039 3.9521,0.81717 3.3188,0.90678 2.6917,0.92002 2.0805,0.86158 0.2213,0.16737 4.7085,-6.13626 -0.2141,-0.17824 -1.3693,-1.78691 -1.5861,-2.36224 -1.7348,-2.97158 -1.8113,-3.60445 -1.8151,-4.25937 -1.7415,-4.92555 -1.5904,-5.59677 -1.3614,-6.26694 4.0472,-4.04725 6.2668,1.36138 5.5969,1.59049 4.9254,1.74151 4.2597,1.81502 3.6044,1.81115 2.9716,1.73476 2.3621,1.58619 1.787,1.36921 0.1782,0.21422 6.1364,-4.70881 -0.1673,-0.22132 -0.8617,-2.08046 -0.9199,-2.69163 -0.9069,-3.31882 -0.8172,-3.95204 -0.6503,-4.58359 -0.4072,-5.20819 -0.087,-5.81779 0.3072,-6.40531 4.9564,-2.86235 5.7011,2.93714 4.9944,2.9851 4.3075,2.95722 3.6431,2.85458 3.0149,2.68352 2.423,2.44174 1.8715,2.14335 1.371,1.7851 0.1113,0.25571 7.1469,-2.95899 -0.099,-0.26113 -0.2934,-2.2326 -0.1926,-2.83926 -0.018,-3.44022 0.2341,-4.02778 0.5579,-4.59608 0.955,-5.13573 1.4206,-5.64252 1.9545,-6.10816 5.5288,-1.48133 4.7459,4.31199 4.0508,4.17696 3.3948,3.97087 2.7816,3.70164 2.2164,3.37039 1.7059,2.98781 1.2532,2.55504 0.8627,2.07965 0.044,0.27548 7.6684,-1.00951 -0.029,-0.27722 0.295,-2.23194 0.549,-2.79224 0.874,-3.32737 1.2687,-3.83035 1.7285,-4.29486 2.251,-4.71413 2.8333,-5.08196 3.4686,-5.39505 5.7236,3e-5 3.4686,5.39507 2.8332,5.08196 2.2512,4.71411 1.7285,4.29477 1.2686,3.83045 0.874,3.32733 0.549,2.79225 0.295,2.2319 -0.029,0.27729 7.6686,1.00948 0.044,-0.27549 0.8624,-2.07956 1.2527,-2.55437 1.7058,-2.98781 2.2164,-3.37042 2.7815,-3.70164 3.3949,-3.97078 4.0512,-4.17672 4.7458,-4.31203 5.5288,1.48143 1.9545,6.10811 1.4206,5.64252 0.9552,5.13569 0.5576,4.59607 0.2343,4.0277 -0.017,3.44031 -0.1926,2.83926 -0.2933,2.2326 -0.099,0.26156 7.1468,2.95912 0.1114,-0.2558 1.371,-1.78515 1.8715,-2.14338 2.4229,-2.44173 3.0149,-2.68358 3.6432,-2.85454 4.3074,-2.9572 4.9944,-2.98509 5.7011,-2.9372 4.9564,2.86241 0.3073,6.4053 -0.087,5.81781 -0.4074,5.20818 -0.6502,4.58359 -0.8173,3.95203 -0.9069,3.31883 -0.9199,2.69158 -0.8616,2.08043 -0.1673,0.22162 6.1364,4.70855 0.1784,-0.21403 1.787,-1.3692 2.3621,-1.58622 2.9717,-1.73469 3.6043,-1.81126 4.2595,-1.8151 4.9257,-1.74137 5.5967,-1.59053 6.267,-1.36148 4.0469,4.04704 -1.3613,6.26697 -1.5906,5.59676 -1.7414,4.9255 -1.8153,4.25953 -1.8111,3.60448 -1.7347,2.97153 -1.5861,2.36223 -1.3693,1.78684 -0.2141,0.17846 4.7087,6.13646 0.2216,-0.16728 2.0805,-0.86148 2.6915,-0.92002 3.3189,-0.90678 3.9521,-0.81718 4.5836,-0.65033 5.2083,-0.40723 5.8176,-0.0876 6.4054,0.30735 2.8623,4.95621 -2.9372,5.70124 -2.985,4.99438 -2.9572,4.30747 -2.8545,3.6432 -2.6837,3.01477 -2.4416,2.423 -2.1434,1.87158 -1.785,1.37106 -0.2559,0.11153 2.9584,7.14623 0.2606,-0.0994 2.2326,-0.29337 2.8394,-0.19268 3.4402,-0.0164 4.0277,0.23423 4.5963,0.55781 5.1356,0.95512 5.6425,1.42053 6.108,1.95455 1.4814,5.52868 -4.3121,4.74589 -4.1766,4.05121 -3.9708,3.39474 -3.7017,2.78166 -3.3704,2.21631 -2.9877,1.70589 -2.5552,1.25338 -2.0795,0.86246 -0.2755,0.0437 1.0094,7.66859 0.2773,-0.0292 2.2319,0.29499 2.7923,0.54891 3.3273,0.87413 3.8304,1.26844 4.2948,1.72862 4.7142,2.25106 5.082,2.83335 5.395,3.46851 10e-5,5.72365 -5.3951,3.46852 -5.082,2.83335 -4.7142,2.25105 -4.2948,1.72848 -3.8304,1.26859 -3.3273,0.87412 -2.7924,0.54891 -2.2318,0.295 -0.2773,-0.0292 -1.0094,7.66859 0.2755,0.0437 2.0795,0.86245 2.5551,1.25335 2.9878,1.70585 3.3704,2.21635 3.7017,2.78168 3.9708,3.39473 4.177,4.05094 4.312,4.74596 -1.4814,5.52868 -6.1081,1.9546 -5.6425,1.42052 -5.1357,0.95505 -4.5961,0.55779 -4.0277,0.23419 -3.4403,-0.0172 -2.8393,-0.1926 -2.2325,-0.2934 -0.2612,-0.0993 -2.9591,7.14697 0.2558,0.11126 1.785,1.37097 2.1434,1.87156 2.4418,2.42299 2.6835,3.01482 2.8546,3.64308 2.9572,4.30752 2.9851,4.99446 2.9372,5.70128 -2.8624,4.95618 -6.4054,0.30731 -5.8177,-0.0874 -5.2082,-0.40732 -4.5834,-0.65026 -3.9522,-0.81729 -3.3188,-0.90683 -2.6916,-0.91994 -2.0805,-0.86153 -0.2213,-0.16743 -4.7086,6.13615 0.2141,0.17829 1.3693,1.78704 1.5863,2.36218 1.7347,2.97151 1.8111,3.60441 1.8151,4.25957 1.7415,4.92544 1.5904,5.59677 1.3615,6.26703 -4.0471,4.04702 -6.2669,-1.36152 -5.5967,-1.59046 -4.9256,-1.74144 -4.2594,-1.815 -3.6045,-1.81125 -2.9716,-1.73475 -2.3621,-1.5861 -1.787,-1.36939 -0.1782,-0.21419 -6.1365,4.70875 0.1674,0.22145 0.8615,2.0805 0.92,2.69166 0.9069,3.31879 0.8171,3.95209 0.6504,4.58363 0.4071,5.20812 0.087,5.81786 -0.3073,6.40512 -4.9563,2.86257 -5.7012,-2.93723 -4.9944,-2.98513 -4.3074,-2.95727 -3.6431,-2.85453 -3.0149,-2.6834 -2.423,-2.4418 -1.8716,-2.14337 -1.371,-1.78515 -0.1112,-0.2557 -7.1468,2.95903 0.099,0.26109 0.2934,2.23257 0.1926,2.83923 0.015,3.44036 -0.2341,4.02775 -0.5579,4.59607 -0.9549,5.13577 -1.4207,5.64246 -1.9545,6.1082 -5.5287,1.4813 -4.7459,-4.312 -4.051,-4.1769 -3.3947,-3.9709 -2.7816,-3.70168 -2.2163,-3.37033 -1.706,-2.98777 -1.2533,-2.55511 -0.8625,-2.07962 -0.044,-0.27552 -7.6686,1.00947 0.029,0.2774 -0.2951,2.2318 -0.5488,2.79231 -0.8741,3.32727 -1.2686,3.83041 -1.7286,4.29487 -2.2511,4.7141 -2.8332,5.0821 -3.4686,5.395 h -5.7236 l -3.4686,-5.395 -2.8333,-5.0821 -2.251,-4.7142 -1.7286,-4.29477 -1.2685,-3.83041 -0.8741,-3.32727 -0.5491,-2.79231 -0.2949,-2.23192 0.029,-0.27728 -7.6686,-1.00947 -0.044,0.27552 -0.8625,2.07962 -1.2528,2.55456 -1.706,2.98777 -2.2164,3.37033 -2.7815,3.70179 -3.3948,3.97064 -4.0512,4.1768 -4.7459,4.3121 -5.5288,-1.4816 -1.9545,-6.108 -1.4204,-5.64243 -0.9552,-5.13577 -0.5578,-4.59607 -0.2341,-4.02775 0.015,-3.44037 0.1927,-2.83911 0.2935,-2.23268 0.099,-0.26054 -7.1469,-2.95903 -0.1112,0.2557 -1.3711,1.78504 -1.8716,2.14337 -2.423,2.4418 -3.0148,2.68362 -3.6433,2.85453 -4.3073,2.95727 -4.9945,2.98502 -5.7011,2.93712 -4.9563,-2.86235 -0.3073,-6.40523 0.087,-5.81786 0.4072,-5.20823 0.6503,-4.58341 0.8171,-3.95231 0.9069,-3.31868 0.9199,-2.69155 0.8616,-2.0805 0.1673,-0.22156 -6.1363,-4.70866 -0.1785,0.21406 -1.787,1.36925 -2.3621,1.58609 -2.9715,1.73472 -3.6045,1.81136 -4.2595,1.81511 -4.9255,1.74144 -5.5969,1.59046 -6.2668,1.36141 -4.0471,-4.04691 z"
         style="display:inline;fill:#ececec;stroke:none;stroke-width:4.00400019;stroke-miterlimit:4;stroke-dasharray:none"
         id="path5394"
         inkscape:connector-curvature="0" />
    </g>
    <path
       d="m 2366.8078,-916.9983 a 238.4828,238.4828 0 0 1 0,337.26895 238.4828,238.4828 0 0 1 -337.2667,-0.001 238.4828,238.4828 0 0 1 -4e-4,-337.26461 238.4828,238.4828 0 0 1 337.2671,-10e-4 z m -55.8483,-259.6092 h -225.5681 l -315.4606,315.46053 -3e-4,225.57093 315.4607,315.46069 225.5683,-0.002 315.4605,-315.46068 4e-4,-225.56558 z"
       style="opacity:1;fill:#ececec;fill-opacity:1;stroke:none;stroke-width:3.78330708;stroke-miterlimit:4;stroke-dasharray:none;stroke-dashoffset:0;stroke-opacity:1;paint-order:normal"
       id="path5450"
       inkscape:connector-curvature="0"
       inkscape:export-filename="C:\Users\rwb34\Downloads\ofm_icon.png"
       inkscape:export-xdpi="43.702644"
       inkscape:export-ydpi="43.702644" />
  </g>
</svg>
